Benchmarking of noise filtering and normalization impact on network inference — network_benchmark_noise_filtering • edgynode
…
# look at results
benchmark_hamming

#> # A tibble: 46 x 5
#>    grn_tool genes     no_noise_no_qnorm_… no_noise_no_qnorm_… no_noise_with_qno…
#>    <chr>    <chr>                   <dbl>               <dbl>              <dbl>
#>  1 GENIE3   ENSMUSG0…                   2                   7                  3
#>  2 GENIE3   ENSMUSG0…                  10                  14                  5
#>  3 GENIE3   ENSMUSG0…                   1                   9                  5
#>  4 GENIE3   ENSMUSG0…                   3                   6                  4
#>  5 GENIE3   ENSMUSG0…                   2                   7                  3
#>  6 GENIE3   ENSMUSG0…                   2                   6                  3
#>  7 GENIE3   ENSMUSG0…                   7                  14                  6
#>  8 GENIE3   ENSMUSG0…                   1                   9                  7
#>  9 GENIE3   ENSMUSG0…                   4                   4                  3
#> 10 GENIE3   ENSMUSG0…                   4                   1                  0
#> # … with 36 more rows
…
# look at results
benchmark_jaccard

#> # A tibble: 46 x 5
#>    grn_tool genes     no_noise_no_qnorm_… no_noise_no_qnorm_… no_noise_with_qno…
#>    <chr>    <chr>                   <dbl>               <dbl>              <dbl>
#>  1 GENIE3   ENSMUSG0…               0.92                0.741              0.875
#>  2 GENIE3   ENSMUSG0…               0.643               0.5                0.773
#>  3 GENIE3   ENSMUSG0…               0.955               0.625              0.783
#>  4 GENIE3   ENSMUSG0…               0.842               0.714              0.8  
#>  5 GENIE3   ENSMUSG0…               0.905               0.72               0.870
#>  6 GENIE3   ENSMUSG0…               0.929               0.793              0.889
#>  7 GENIE3   ENSMUSG0…               0.75                0.481              0.7  
#>  8 GENIE3   ENSMUSG0…               0.96                0.667              0.708
#>  9 GENIE3   ENSMUSG0…               0.846               0.852              0.885
#> 10 GENIE3   ENSMUSG0…               0.818               0.947              1    
#> # … with 36 more rows
…
